[
    {
        "id": 1,
        "title": "Gallery | Image 1",
        "imageLink": "assets/img/placeholder/one.jpg",
        "zoomTitle": "Zoom"
    },
    {
        "id": 2,
        "title": "Gallery | Image 2",
        "imageLink": "assets/img/placeholder/two.jpg",
        "zoomTitle": "Zoom"
    },
    {
        "id": 3,
        "title": "Gallery | Image 3",
        "imageLink": "assets/img/placeholder/three.jpg",
        "zoomTitle": "Zoom"
    },
    {
        "id": 4,
        "title": "Gallery | Image 4",
        "imageLink": "assets/img/placeholder/four.jpg",
        "zoomTitle": "Zoom"
    },
    {
        "id": 5,
        "title": "Gallery | Image 5",
        "imageLink": "assets/img/placeholder/five.jpg",
        "zoomTitle": "Zoom"
    },
    {
        "id": 6,
        "title": "Gallery | Image 6",
        "imageLink": "assets/img/placeholder/six.jpg",
        "zoomTitle": "Zoom"
    },
    {
        "id": 7,
        "title": "Gallery | Image 7",
        "imageLink": "assets/img/placeholder/seven.jpg",
        "zoomTitle": "Zoom"
    },
    {
        "id": 8,
        "title": "Gallery | Image 8",
        "imageLink": "assets/img/placeholder/eight.jpg",
        "zoomTitle": "Zoom"
    },
    {
        "id": 9,
        "title": "Gallery | Image 9",
        "imageLink": "assets/img/placeholder/nine.jpg",
        "zoomTitle": "Zoom"
    },
    {
        "id": 10,
        "title": "Gallery | Image 10",
        "imageLink": "assets/img/placeholder/ten.jpg",
        "zoomTitle": "Zoom"
    },
    {
        "id": 11,
        "title": "Gallery | Image 11",
        "imageLink": "assets/img/placeholder/eleven.jpg",
        "zoomTitle": "Zoom"
    },
    {
        "id": 12,
        "title": "Gallery | Image 12",
        "imageLink": "assets/img/placeholder/twelve.jpg",
        "zoomTitle": "Zoom"
    },
    {
        "id": 13,
        "title": "Gallery | Image 13",
        "imageLink": "assets/img/placeholder/thirteen.jpg",
        "zoomTitle": "Zoom"
    },
    {
        "id": 14,
        "title": "Gallery | Image 14",
        "imageLink": "assets/img/placeholder/fourteen.jpg",
        "zoomTitle": "Zoom"
    },
    {
        "id": 15,
        "title": "Gallery | Image 15",
        "imageLink": "assets/img/placeholder/fifteen.jpg",
        "zoomTitle": "Zoom"
    },
    {
        "id": 16,
        "title": "Gallery | Image 16",
        "imageLink": "assets/img/placeholder/sixteen.jpg",
        "zoomTitle": "Zoom"
    },
    {
        "id": 17,
        "title": "Gallery | Image 17",
        "imageLink": "assets/img/placeholder/seventeen.jpg",
        "zoomTitle": "Zoom"
    },
    {
        "id": 18,
        "title": "Gallery | Image 18",
        "imageLink": "assets/img/placeholder/eighteen.jpg",
        "zoomTitle": "Zoom"
    },
    {
        "id": 19,
        "title": "Gallery | Image 19",
        "imageLink": "assets/img/placeholder/nineteen.jpg",
        "zoomTitle": "Zoom"
    },
    {
        "id": 20,
        "title": "Gallery | Image 20",
        "imageLink": "assets/img/placeholder/twenty.jpg",
        "zoomTitle": "Zoom"
    },
    {
        "id": 21,
        "title": "Gallery | Image 21",
        "imageLink": "assets/img/placeholder/twentyone.jpg",
        "zoomTitle": "Zoom"
    },
    {
        "id": 22,
        "title": "Gallery | Image 22",
        "imageLink": "assets/img/placeholder/twentytwo.jpg",
        "zoomTitle": "Zoom"
    },
    {
        "id": 23,
        "title": "Gallery | Image 23",
        "imageLink": "assets/img/placeholder/twentythree.jpg",
        "zoomTitle": "Zoom"
    },
    {
        "id": 24,
        "title": "Gallery | Image 24",
        "imageLink": "assets/img/placeholder/twentyfour.jpg",
        "zoomTitle": "Zoom"
    }
]
